the,il
of,di
and,e
to,a
in,in
i,io
that,quella
was,era
his,il suo
he,lui
it,esso
with,con
is,è
for,per
as,come
had,aveva
you,tu
not,non
be,essere
her,sua
on,sopra
at,a
by,di
which,quale
have,avere
or,o
from,da parte di
this,Questo
him,lui
but,ma
all,tutti
she,lei
they,essi
were,erano
my,mio
are,siamo
me,me
one,uno
their,loro
so,così
an,un
said,disse
them,loro
we,noi
who,chi
would,voluto
been,stato
will,volere
no,no
when,quando
there,Là
if,Se
more,Di Più
out,su
up,su
into,in
do,fare
any,qualsiasi
your,il tuo
what,che cosa
has,ha
man,uomo
could,poteva
other,altro
than,di
our,nostro
some,alcuni
very,molto
time,tempo
upon,su
about,di
may,può
its,suo
only,solo
now,adesso
like,piace
little,piccolo
then,poi
can,può
should,dovrebbero
made,fatto
did,fatto
us,noi
such,come
a,un
great,grande
before,prima
must,dovere
two,Due
these,queste
see,vedere
know,sapere
over,al di sopra
much,tanto
down,giù
after,dopo
first,primo
Mr,Sig
good,bene
men,uomini
own,proprio
never,mai
most,maggior parte
old,vecchio
shall,deve
day,giorno
where,dove
those,quelli
came,è venuto
come,venire
himself,lui stesso
way,modo
work,lavoro
life,vita
without,senza
go,andare
make,rendere
well,bene
through,attraverso
being,essere
long,lungo
say,dire
might,potrebbe
how,Come
am,sono
too,pure
even,anche
def,DEF
again,ancora
many,molti
back,indietro
here,Qui
think,pensare
every,ogni
people,persone
went,è andato
same,stesso
last,ultimo
thought,pensato
away,lontano
under,sotto
take,prendere
found,trovato
hand,mano
eyes,occhi
still,ancora
place,posto
while,mentre
just,appena
also,anche
young,giovane
yet,ancora
though,anche se
against,contro
things,cose
get,ottenere
ever,mai
give,dare
god,Dio
years,anni
off,via
face,faccia
nothing,Niente
right,destra
once,una volta
another,un altro
left,sinistra
part,parte
saw,sega
house,casa
world,mondo
head,capo
three,tre
took,ha preso
new,nuovo
love,amore
always,sempre
Mrs,Sig.ra
put,mettere
night,notte
each,ogni
king,re
between,fra
tell,raccontare
mind,mente
heart,cuore
few,pochi
because,perché
thing,cosa
whom,chi
far,lontano
seemed,sembrava
looked,guardato
called,chiamato
whole,intero
de,de
set,impostato
both,entrambi
got,avuto
find,trova
done,fatto
heard,sentito
look,Guarda
name,Nome
days,giorni
told,detto
let,lasciare
lord,signore
country,nazione
asked,chiesto
going,andando
seen,visto
better,meglio
p,p
having,avendo
home,casa
knew,conosceva
side,lato
something,qualcosa
moment,momento
father,padre
among,tra
course,corso
hands,mani
woman,donna
enough,abbastanza
words,parole
mother,madre
soon,presto
full,pieno
end,fine
gave,ha dato
room,camera
almost,quasi
small,piccolo
thou,tu
cannot,non può
water,acqua
want,volere
however,però
light,leggero
quite,abbastanza
brought,portato
nor,né
word,parola
whose,di chi
given,dato
door,porta
best,migliore
turned,trasformato
taken,prese
does,fa
use,uso
morning,mattina
myself,me stessa
Gutenberg,Gutenberg
felt,provato
until,fino a
since,da
power,energia
themselves,loro stessi
used,usato
rather,piuttosto
began,iniziato
present,presente
voice,voce
others,altri
white,bianca
works,lavori
less,Di meno
money,i soldi
next,Il prossimo
poor,povero
death,morte
stood,sorgeva
form,modulo
within,entro
together,insieme
till,fino
thy,tuo
large,grande
matter,importa
kind,genere
often,di frequente
certain,certo
herself,se stessa
year,anno
friend,amico
half,metà
order,ordine
round,tondo
TRUE,VERO
anything,qualsiasi cosa
keep,tenere
sent,inviato
wife,moglie
means,si intende
believe,credere
passed,passato
feet,piedi
near,vicino
public,pubblico
state,stato
son,figlio
hundred,centinaio
children,bambini
thus,così
hope,speranza
alone,da solo
above,sopra
case,caso
dear,caro
thee,ti
says,dice
person,persona
high,alto
read,leggi
city,città
already,già
received,ricevuto
fact,fatto
gone,andato
girl,ragazza
known,conosciuto
hear,sentire
times,volte
least,meno
perhaps,forse
sure,sicuro
indeed,infatti
english,Inglese
open,aperto
body,corpo
itself,si
along,lungo
land,terra
return,ritorno
leave,partire
air,aria
nature,natura
answered,risponde
either,o
law,legge
help,Aiuto
lay,posare
point,punto
child,bambino
letter,lettera
four,quattro
wish,desiderio
fire,fuoco
cried,pianto
2,2
women,donne
speak,parlare
number,numero
therefore,perciò
hour,ora
friends,amici
held,held
free,gratuito
war,guerra
during,durante
several,parecchi
business,attività commerciale
whether,se
er,ER
manner,maniera
second,secondo
reason,ragionare
replied,ha risposto
united,unito
call,chiamata
general,generale
why,perché
behind,alle spalle
became,divenne
john,Giovanni
become,diventare
dead,morto
earth,terra
boy,ragazzo
lost,perduto
forth,via
thousand,mille
looking,in cerca
I'll,io
family,famiglia
soul,anima
feel,sentire
coming,venuta
England,Inghilterra
spirit,spirito
question,domanda
care,cura
truth,verità
ground,terra
really,veramente
rest,riposo
mean,significare
different,diverso
making,fabbricazione
possible,possibile
fell,abbattere
towards,in direzione
human,umano
kept,tenere
short,breve
town,cittadina
following,a seguire
need,bisogno
cause,causa
met,incontrato
evening,sera
returned,tornato
five,cinque
strong,forte
able,capace
french,francese
live,vivere
lady,signora
subject,soggetto
sn,SN
answer,risposta
sea,mare
fear,paura
understand,capire
hard,difficile
terms,condizioni
doubt,dubbio
around,in giro
ask,chiedere
arms,braccia
turn,giro
sense,senso
seems,sembra
black,Nero
bring,portare
followed,seguita
beautiful,bellissimo
close,vicino
dark,buio
hold,tenere
character,carattere
sort,ordinare
sight,vista
ten,dieci
show,mostrare
party,partito
fine,bene
ye,voi
ready,pronto
story,storia
common,Comune
book,libro
electronic,elettronico
talk,parlare
account,account
mark,marchio
interest,interesse
written,scritto
can't,non può
bed,letto
necessary,necessario
age,età
else,altro
force,vigore
idea,idea
longer,più a lungo
art,arte
spoke,ha parlato
across,attraverso
brother,fratello
early,presto
ought,dovere
sometimes,a volte
line,linea
saying,detto
table,tavolo
appeared,apparso
river,fiume
continued,continua
eye,occhio
ety,ety
sun,Sole
information,informazioni
later,dopo
everything,qualunque cosa
reached,raggiunto
suddenly,ad un tratto
past,passato
hours,ore
strange,strano
deep,in profondità
change,cambiamento
miles,miglia
feeling,sensazione
act,atto
meet,incontrare
paid,pagato
further,ulteriore
purpose,scopo
happy,contento
added,aggiunto
seem,sembrare
taking,presa
blood,sangue
rose,rosa
south,Sud
beyond,al di là
cold,freddo
neither,nessuno dei due
forward,inoltrare
view,vista
I've,Io ho
position,posizione
sound,suono
none,nessuna
entered,inserito
clear,pulire
road,strada
late,in ritardo
stand,stare in piedi
suppose,supporre
la,la
daughter,figlia
real,vero
nearly,quasi
mine,il mio
laws,legislazione
knowledge,conoscenza
comes,viene
toward,verso
bad,cattivo
cut,tagliare
copy,copia
husband,marito
six,sei
France,Francia
living,vita
peace,pace
didn't,non l'ha fatto
low,Basso
north,nord
remember,ricorda
effect,effetto
natural,naturale
pretty,bella
fall,autunno
fair,giusto
service,servizio
below,sotto
except,tranne
American,americano
hair,capelli
London,Londra
laid,laid
pass,passaggio
led,guidato
copyright,diritto d'autore
doing,fare
army,esercito
run,correre
horse,cavallo
future,futuro
opened,ha aperto
pleasure,piacere
history,storia
west,ovest
pay,pagare
red,rosso
an',un'
4,4
hath,Hath
note,Nota
although,sebbene
wanted,ricercato
gold,oro
makes,fa
desire,desiderio
play,giocare
master,maestro
office,ufficio
tried,provato
front,davanti
big,grande
Dr,Dr
lived,ha vissuto
certainly,certamente
wind,vento
receive,ricevere
attention,Attenzione
government,governo
unto,verso
church,Chiesa
strength,forza
length,lunghezza
company,società
placed,posto
paper,carta
letters,lettere
probably,probabilmente
glad,lieto
important,importante
especially,particolarmente
greater,maggiore
yourself,te stesso
fellow,compagno
bear,orso
opinion,opinione
window,finestra
ran,corse
faith,fede
ago,fa
agreement,accordo
charge,carica
beauty,bellezza
lips,labbra
remained,è rimasta
arm,braccio
latter,quest'ultimo
duty,dovere
send,inviare
distance,distanza
silence,silenzio
foot,piede
wild,selvaggio
object,oggetto
die,muori
save,salvare
gentleman,signore
trees,alberi
green,verde
trouble,guaio
smile,sorriso
books,libri
wrong,sbagliato
various,vario
sleep,dormire
persons,persone
blockquote,blockquote
happened,è accaduto
particular,particolare
drew,ha disegnato
minutes,minuti
hardly,quasi
walked,camminava
chief,capo
chance,opportunità
according,secondo
beginning,inizio
action,azione
deal,affare
loved,amato
visit,visita
thinking,pensiero
follow,seguire
standing,in piedi
knows,conosce
try,provare
presence,presenza
heavy,pesante
sweet,dolce
plain,pianura
donations,donazioni
immediately,subito
wrote,ha scritto
mouth,bocca
rich,ricco
thoughts,pensieri
months,mesi
u,u
won't,non lo farà
afraid,impaurito
Paris,Parigi
single,singolo
joy,gioia
enemy,nemico
broken,rotto
unless,salvo che
states,stati
ship,nave
condition,condizione
carry,portare
exclaimed,esclamò
including,Compreso
filled,pieno
seeing,vedendo
influence,influenza
write,Scrivi
boys,ragazzi
appear,apparire
outside,al di fuori
secret,segreto
parts,parti
please,per favore
appearance,aspetto
evil,il male
march,marzo
george,Giorgio
whatever,qualunque cosa
slowly,lentamente
tears,lacrime
horses,cavalli
places,posti
caught,catturato
stay,restare
instead,anziché
struck,colpito
blue,blu
York,York
impossible,impossibile
period,periodo
sister,sorella
battle,battaglia
school,scuola
Mary,Maria
raised,sollevato
occasion,occasione
married,sposato
man's,L'uomo di
former,ex
food,cibo
youth,gioventù
learned,imparato
merely,semplicemente
reach,raggiungere
system,sistema
twenty,venti
dinner,cena
quiet,silenzioso
easily,facilmente
moved,mosso
afterwards,in seguito
giving,dando
walk,camminare
stopped,fermato
laughed,rideva
language,Lingua
expression,espressione
week,settimana
hall,sala
danger,Pericolo
property,proprietà
wonder,meraviglia
usual,solito
figure,figura
born,Nato
court,corte
generally,generalmente
grew,è cresciuto
showed,ha mostrato
getting,ottenere
ancient,antico
respect,rispetto
third,Terzo
worth,di valore
simple,semplice
tree,albero
leaving,partenza
remain,rimanere
society,società
fight,combattimento
wall,parete
result,risultato
heaven,Paradiso
William,William
started,iniziato
command,comando
tone,tono
regard,considerare
expected,previsto
mere,semplice
month,mese
beside,accanto
silent,silenzioso
perfect,Perfetto
experience,Esperienza
street,strada
writing,scrittura
goes,va
circumstances,condizioni
entirely,interamente
fresh,fresco
duke,duca
covered,coperto
bound,limite
east,est
wood,legna
stone,pietra
quickly,velocemente
notice,Avviso
bright,luminosa
Christ,Cristo
boat,barca
noble,nobile
meant,significava
somewhat,piuttosto
sudden,improvviso
value,valore
c.,c.
direction,direzione
chair,sedia
due,dovuto
support,supporto
tom,tom
date,Data
waiting,in attesa
Christian,cristiano
village,villaggio
lives,vite
reading,lettura
agree,concordare
lines,Linee
considered,considerato
field,campo
observed,osservata
scarcely,appena
wished,desiderato
wait,Aspetta
greatest,più grande
permission,autorizzazione
success,successo
piece,pezzo
british,Britannico
ex,ex
Charles,Charles
formed,formato
speaking,A proposito di
trying,provare
conversation,conversazione
proper,corretto
hill,collina
music,musica
opportunity,opportunità
that's,quello è
German,Tedesco
afternoon,pomeriggio
cry,piangere
cost,costo
allowed,permesso
girls,ragazze
considerable,considerevole
c,c
broke,rotto
honour,onore
seven,Sette
private,privato
sit,sedersi
news,notizia
top,superiore
scene,scena
discovered,scoperto
marriage,matrimonio
step,passo
garden,giardino
race,gara
begin,inizio
per,per
individual,individuale
sitting,seduta
learn,imparare
political,politico
difficult,difficile
bit,po
speech,discorso
Henry,Enrico
lie,bugia
cast,lanciare
eat,mangiare
authority,autorità
etc.,eccetera.
floor,pavimento
ill,malato
ways,modi
officers,ufficiali
offered,offerto
original,originale
happiness,felicità
flowers,fiori
produced,prodotta
summer,estate
provide,fornire
study,studio
religion,religione
picture,immagine
walls,muri
personal,personale
America,America
watch,orologio
pleased,contento
leaves,fogliame
declared,dichiarato
hot,piccante
understood,inteso
effort,sforzo
prepared,preparato
escape,fuga
attempt,tentativo
supposed,ipotetico
killed,ucciso
fast,veloce
author,autore
Indian,indiano
brown,Marrone
determined,determinato
pain,dolore
spring,primavera
takes,prende
drawn,disegnato
soldiers,soldati
houses,case
beneath,sotto
talking,parlando
turning,svolta
century,secolo
steps,passaggi
intended,destinato
soft,morbido
straight,dritto
matters,questioni
likely,probabile
corner,angolo
trademark,marchio
justice,giustizia
simply,semplicemente
produce,produrre
trust,fiducia
appears,appare
Rome,Roma
laugh,ridere
forget,dimenticare
Europe,Europa
passage,passaggio
eight,otto
closed,chiuso
ourselves,noi stessi
gives,dà
dress,vestito
passing,passaggio
terrible,terribile
required,richiesto
medium,medio
efforts,sforzi
sake,amor
breath,respiro
wise,saggio
ladies,le signore
possession,possesso
pleasant,piacevole
perfectly,perfettamente
o',O '
memory,memoria
usually,generalmente
grave,tomba
fixed,fisso
modern,moderno
spot,individuare
troops,truppe
rise,salire
break,rompere
fifty,cinquanta
island,isola
meeting,incontro
camp,campo
nation,nazione
existence,esistenza
reply,rispondere
I'd,mi piacerebbe
copies,copie
sky,cielo
touch,toccare
equal,pari
fortune,fortuna
v.,v.
shore,puntellare
domain,dominio
named,di nome
situation,situazione
looks,sembra
promise,promessa
orders,ordini
degree,grado
middle,in mezzo
winter,inverno
plan,Piano
spent,speso
allow,consentire
pale,pallido
conduct,condotta
running,in esecuzione
religious,religioso
surprise,sorpresa
minute,minuto
roman,romano
cases,casi
shot,tiro
lead,condurre
move,mossa
names,nomi
stop,Stop
higher,più alto
et,et
father's,Il padre di
threw,gettò
worse,peggio
built,costruito
spoken,verbale
glass,bicchiere
board,tavola
vain,vano
affairs,affari
instance,istanza
safe,sicuro
loss,perdita
doctor,medico
offer,offrire
class,classe
complete,completare
access,accesso
lower,inferiore
wouldn't,no
repeated,ripetuto
forms,forme
darkness,oscurità
military,militare
warm,caldo
drink,bere
passion,passione
ones,quelli
physical,fisico
example,esempio
ears,orecchie
questions,domande
start,inizio
lying,dire bugie
smiled,Sorrise
keeping,conservazione
spite,dispetto
shown,dimostrato
directly,direttamente
james,James
hart,cervo
serious,grave
hat,cappello
dog,cane
silver,argento
sufficient,sufficiente
main,principale
mentioned,menzionato
servant,servitore
pride,orgoglio
crowd,folla
train,treno
wonderful,meraviglioso
moral,morale
instant,immediato
associated,associato
path,il percorso
greek,greco
meaning,senso
fit,in forma
ordered,ordinato
lot,lotto
he's,lui è
proved,dimostrato
obliged,obbligato
enter,entrare
rule,regola
sword,spada
attack,attacco
seat,sede
game,gioco
health,Salute
paragraph,paragrafo
statement,dichiarazione
social,sociale
refund,rimborso
sorry,scusa
courage,coraggio
members,membri
grace,grazia
official,ufficiale
dream,sognare
worthy,degno
rock,roccia
jack,Jack
provided,fornito
special,speciale
shook,scuotere
request,richiesta
mighty,potente
glance,occhiata
heads,teste
movement,movimento
fee,tassa
share,Condividere
expect,aspettarsi
couldn't,non poteva
dollars,dollari
spread,diffusione
opposite,di fronte
glory,gloria
twelve,dodici
space,spazio
engaged,impegnato
peter,Pietro
wine,vino
ordinary,ordinario
mountains,montagne
taste,gusto
iron,ferro
isn't,non è
distribute,distribuire
trade,Commercio
consider,prendere in considerazione
greatly,molto
accepted,accettato
forced,costretto
advantage,vantaggio
ideas,idee
decided,deciso
using,utilizzando
officer,ufficiale
rate,tasso
clothes,Abiti
sign,segno
feelings,sentimenti
native,nativo
promised,promesso
judge,giudice
difference,differenza
working,lavoro
anxious,ansioso
marry,sposare
captain,Capitano
finished,finito
extent,estensione
watched,guardato
curious,curioso
foreign,straniero
besides,inoltre
method,metodo
excellent,eccellente
confidence,fiducia
marked,segnato
em,em
jesus,Gesù
exactly,di preciso
importance,importanza
finally,finalmente
bill,conto
vast,vasto
prove,dimostrare
fancy,fantasia
quick,veloce
yes,sì
sought,ricercato
prevent,prevenire
neck,collo
hearts,cuori
liberty,libertà
interesting,interessante
sides,lati
legal,legale
gentlemen,gentiluomini
dry,secco
serve,servire
aside,a parte
pure,puro
concerning,circa
forgotten,dimenticato
lose,perdere
powers,potenze
possessed,posseduto
thrown,gettato
evidence,prova
distant,lontano
michael,Michael
progress,progresso
similar,simile
narrow,stretto
altogether,del tutto
building,costruzione
page,pagina
particularly,in particolar modo
knowing,sapendo
weeks,settimane
settled,sistemato
holding,detenzione
mountain,montagna
search,ricerca
sad,triste
sin,peccato
lies,bugie
proud,orgoglioso
pieces,pezzi
clearly,chiaramente
price,prezzo
ships,navi
thirty,trenta
sick,malato
honest,onesto
shut,chiuso
talked,parlato
bank,banca
fate,destino
dropped,caduto
judgment,giudizio
conditions,condizioni
king's,re
accept,accettare
hills,colline
removed,rimosso
forest,foresta
measure,misurare
species,specie
seek,cercare
highest,massimo
otherwise,altrimenti
stream,ruscello
honor,onore
carefully,accuratamente
obtained,ottenuto
ear,orecchio
bread,pane
bottom,parte inferiore
additional,aggiuntivo
presented,presentata
aid,aiuto
fingers,dita
q,q
remembered,ricordato
choose,scegliere
agreed,concordato
animal,animale
events,eventi
there's,c'è
fully,completamente
delight,diletto
rights,diritti
amount,quantità
obtain,ottenere
tax,imposta
servants,servi
sons,figli maschi
cross,attraversare
shoulders,le spalle
thick,denso
points,punti
stranger,sconosciuto
woods,bosco
facts,fatti
dare,osare
grow,crescere
creature,creatura
hung,sospeso
rain,pioggia
FALSE,FALSE
tall,alto
gate,cancello
nations,nazioni
created,creato
refused,rifiutato
quietly,tranquillamente
surface,superficie
freely,liberamente
holy,santo
streets,strade
blow,soffio
july,luglio
regarded,considerato
fashion,moda
report,rapporto
coast,costa
daily,quotidiano
file,file
shoulder,spalla
surprised,sorpreso
faces,facce
succeeded,ha avuto successo
birds,uccelli
distribution,distribuzione
royal,reale
song,canzone
wealth,ricchezza
comfort,comfort
failed,fallito
freedom,la libertà
peculiar,peculiare
anyone,chiunque
advance,progredire
gentle,dolce
surely,certamente
animals,animali
waited,atteso
secure,sicuro
desired,desiderato
grass,erba
touched,toccato
occupied,occupato
draw,disegnare
stage,palcoscenico
portion,porzione
expressed,espresso
opening,apertura
june,giugno
spirits,spiriti
fish,pesce
tongue,lingua
capital,capitale
angry,arrabbiato
growing,in crescita
served,servito
carriage,trasporto
weather,tempo
breast,Seno
presently,attualmente
snow,la neve
david,david
papers,documenti
necessity,necessità
practice,pratica
claim,Richiesta
hast,hast
education,educazione
sharp,acuto
prince,Principe
permitted,consentito
group,gruppo
enemies,nemici
robert,robert
played,giocato
throughout,per tutto
pity,pietà
expense,spese
yours,il tuo
million,milione
add,aggiungere
pray,pregare
taught,insegnato
explained,ha spiegato
tired,stanco
leading,principale
kill,uccidere
shadow,ombra
companion,compagno
weight,peso
mass,massa
established,stabilito
suffered,subito
gray,grigio
brave,coraggioso
thin,magro
satisfied,soddisfatto
check,dai un'occhiata
virtue,virtù
golden,d'oro
numerous,numerose
frequently,frequentemente
famous,famoso
telling,raccontare
powerful,potente
alive,vivo
waters,acque
national,nazionale
weak,debole
divine,divine
material,materiale
principal,principale
gathered,si riunirono
suggested,suggerito
frank,Franco
valley,valle
guess,indovina
finding,scoperta
yellow,giallo
heat,calore
remains,resti
bent,piegato
seized,sequestrati
guard,guardia
equally,ugualmente
naturally,naturalmente
box,scatola
remarkable,notevole
gods,di Dio
moon,Luna
slight,leggero
style,stile
pointed,appuntito
saved,salvato
windows,finestre
crossed,attraversato
louis,Louis
pounds,libbre
ain't,non è
evidently,evidentemente
principle,principio
immediate,immediato
willing,disposto
consequence,conseguenza
richard,richard
principles,i principi
characters,personaggi
paul,Paolo
season,stagione
remarked,osservò
science,scienza
tender,tenero
worked,lavorato
grown,cresciuto
whispered,sussurrato
interested,interessato
quarter,trimestre
midst,mezzo
liked,è piaciuto
advanced,Avanzate
apparently,apparentemente
bore,foro
pwh,PWH
active,attivo
noticed,si accorse
aware,consapevole
thomas,Tommaso
uncle,zio
list,lista
dangerous,pericolosi
august,agosto
calm,calma
genius,genio
sacred,sacro
kingdom,regno
entire,intero
popular,popolare
unknown,Sconosciuto
nice,simpatico
habit,abitudine
spanish,spagnolo
familiar,familiare
reader,lettore
published,pubblicato
direct,diretto
handsome,bello
you'll,Avrete
joined,congiunto
actually,in realtà
kings,re
sd,sd
posted,postato
approach,approccio
washington,Washington
hearing,udito
needed,necessaria
increased,è aumentato
walking,a passeggio
twice,due volte
throw,gettare
intellectual,intellettuale
appointed,designato
wisdom,saggezza
ceased,cessato
truly,veramente
numbers,numeri
demanded,richiesto
priest,sacerdote
wounded,ferito
sorrow,tristezza
drive,guidare
fault,colpa
listened,ascoltato
palace,palazzo
affair,affare
contact,contatto
distinguished,distinto
station,stazione
beat,battere
distributed,distribuito
e,e
listen,ascolta
italy,Italia
fool,stolto
becomes,diventa
watching,Guardando
hurt,male
wants,vuole
express,esprimere
occurred,si è verificato
favour,favore
height,altezza
size,dimensione
edge,bordo
subjects,soggetti
task,compito
follows,segue
interests,interessi
nine,nove
sympathy,simpatia
burst,scoppiare
putting,mettendo
dressed,vestito
lifted,sollevato
hopes,speranze
suffer,soffrire
noise,rumore
smiling,sorridente
rode,Rode
tells,dice
minds,menti
farther,più lontano
literature,letteratura
vessel,nave
affection,affetto
suffering,sofferenza
proceeded,procedette
flesh,carne
advice,consigli
grand,grande
carrying,portando
legs,gambe
spain,Spagna
post,inviare
collection,collezione
empty,vuoto
rank,rango
storm,tempesta
god's,di Dio
imagine,immaginare
wore,indossava
duties,doveri
admitted,ammesso
countries,paesi
pocket,tasca
arrival,arrivo
imagination,immaginazione
driven,guidato
loud,forte
sentence,condanna
lovely,bello
extraordinary,straordinario
november,novembre
december,dicembre
happen,accadere
absence,assenza
breakfast,colazione
population,popolazione
thank,ringraziare
rules,regole
inhabitants,abitanti
series,serie
laughing,risata
address,Indirizzo
relief,sollievo
bird,uccello
owner,proprietario
impression,impressione
satisfaction,soddisfazione
coat,cappotto
prepare,preparare
relations,relazioni
shape,forma
birth,nascita
rapidly,rapidamente
smoke,fumo
January,gennaio
mother+'s,madre + s '
machine,macchina
content,contenuto
consideration,considerazione
accompanied,accompagnati
regular,regolare
moving,in movimento
stands,stand
wholly,interamente
teeth,denti
busy,occupato
treated,trattati
burning,ardente
shame,vergogna
quality,qualità
bay,baia
discover,scoprire
inside,dentro
brain,cervello
soil,suolo
completely,completamente
message,messaggio
ring,anello
resolved,risoluto
calling,chiamata
phrase,frase
acts,atti
mention,menzione
square,piazza
pair,coppia
won,ha vinto
title,titolo
understanding,comprensione
Sunday,Domenica
fruit,frutta
mad,pazzo
forces,forze
included,incluso
tea,tè
rocks,rocce
nearer,più vicino
slaves,schiavi
falling,caduta
absolutely,assolutamente
slow,lento
bearing,cuscinetto
mercy,misericordia
larger,più grandi
explain,spiegare
contain,contenere
grief,dolore
soldier,soldato
wasn't,non era
countenance,viso
previous,precedente
explanation,spiegazione
welcome,benvenuto
proposed,proposto
prayer,preghiera
stars,stelle
germany,Germania
belief,credenza
informed,informato
moments,momenti
poetry,poesia
constant,costante
buy,Acquistare
final,finale
faithful,fedele
ride,cavalcata
policy,politica
supper,cena
drawing,disegno
excitement,eccitazione
dying,morente
demand,richiesta
fighting,combattente
fields,campi
drove,gregge
upper,superiore
sum,somma
philip,Filippo
motion,movimento
assistance,assistenza
forty,quaranta
april,aprile
stones,pietre
edward,Edward
fees,tasse
kindly,gentilmente
dignity,dignità
catch,catturare
october,ottobre
seated,seduti
knees,ginocchia
amongst,tra
current,attuale
sending,invio
parties,feste
objects,oggetti
gained,guadagnato
bitter,amaro
possibly,possibilmente
slave,schiavo
separate,separato
loose,sciolto
text,testo
receiving,ricevente
worst,peggio
sold,venduto
don,don
credit,credito
chosen,scelto
hoped,sperato
printed,stampato
terror,terrore
features,Caratteristiche
fond,affezionato
control,controllo
capable,capace
fifteen,quindici
doesn't,non lo fa
firm,azienda
superior,superiore
cruel,crudele
spiritual,spirituale
harry,tormentare
splendid,splendida
proof,prova
pressed,pressato
sooner,prima
join,aderire
process,Processo
crime,crimine
dust,polvere
instantly,immediatamente
lands,terre
relation,relazione
doors,porte
concerned,interessato
deeply,profondamente
practical,pratico
colour,colore
sing,cantare
destroy,distruggere
anger,rabbia
distributing,distribuzione
results,risultati
increase,aumentare
reasons,motivi
nose,naso
friendly,amichevole
entrance,Ingresso
rooms,camere
admit,ammettere
supply,fornitura
clean,pulito
useful,utile
yesterday,ieri
delicate,delicato
fail,fallire
continue,proseguire
remove,Rimuovere
addressed,indirizzata
choice,scelta
huge,enorme
needs,esigenze
wear,indossare
blind,cieco
unable,incapace
cover,copertina
double,raddoppiare
victory,vittoria
dozen,dozzina
constantly,costantemente
level,livello
india,India
release,uscita
rough,ruvido
ended,conclusa
shows,Spettacoli
fly,volare
praise,lode
devil,diavolo
ahead,avanti
smith,fabbro
connected,collegato
degrees,gradi
gain,guadagno
addition,aggiunta
committed,impegnata
chamber,Camera
notes,note
italian,italiano
gradually,gradualmente
acquaintance,conoscenza
bought,comprato
souls,anime
mission,missione
sacrifice,sacrificio
cities,le città
mistake,sbaglio
exercise,esercizio
conscience,coscienza
based,basato
car,auto
buried,sepolto
theory,teoria
commanded,comandato
nobody,nessuno
minister,ministro
closely,strettamente
energy,energia
dick,cazzo
bare,spoglio
fought,combattuto
partly,in parte
mistress,padrona
hate,odiare
arose,sorse
playing,giocando
color,colore
lake,lago
safety,sicurezza
provisions,disposizioni
description,descrizione
asleep,addormentato
centre,centro
faint,svenire
thinks,pensa
parents,genitori
escaped,sfuggito
careful,attento
enjoy,godere
drop,far cadere
brilliant,brillante
brief,breve
bringing,portando
worship,culto
goods,merce
tale,racconto
skin,pelle
roof,tetto
grey,grigio
highly,altamente
crown,corona
castle,castello
excited,ECCITATO
throne,trono
stated,dichiarato
despair,disperazione
ease,alleviare
attached,allegato
total,totale
kindness,gentilezza
mile,miglio
citizens,cittadini
circle,cerchio
dull,noioso
extreme,estremo
clouds,nuvole
figures,figure
intention,Intenzione
prison,prigione
term,termine
assured,assicurato
hidden,nascosto
thoroughly,a fondo
cup,tazza
member,membro
civil,civile
apply,Applicare
labor,lavoro
everywhere,ovunque
intelligence,intelligenza
strike,sciopero
fairly,abbastanza
comply,soddisfare
fellows,compagni
haven't,non hanno
event,evento
gently,delicatamente
connection,connessione
protection,protezione
conscious,consapevole
edition,edizione
directed,indirizzato
pulled,tirato
flight,volo
evident,evidente
surrounded,circondato
wishes,auguri
yards,cantieri
voices,voci
weary,stanco
couple,coppia
variety,varietà
whilst,mentre
volume,volume
details,dettagli
older,più vecchio
requirements,requisiti
custom,costume
apart,a parte
bow,arco
awful,terribile
everybody,tutti
labour,lavoro
asking,chiede
lover,amante
showing,mostrando
introduced,introdotto
suit,Completo
becoming,diventando
composed,composto
plans,piani
rendered,reso
pictures,immagini
lest,per paura che
volunteers,volontari
singing,canto
eager,desideroso
precious,prezioso
paused,in pausa
require,richiedere
meat,la carne
whenever,ogni volta
milk,latte
dogs,cani
successful,riuscito
plants,piante
vision,visione
rare,raro
granted,concesso
raise,aumentare
egypt,Egitto
manners,maniere
cousin,cugino
you've,hai
development,sviluppo
arthur,Artù
obs,OB
cool,fresco
trial,prova
learning,apprendimento
approached,avvicinato
bridge,ponte
abroad,all'estero
devoted,devoto
paying,pagare
literary,letterario
writer,scrittore
fn,fn
israel,Israele
disappeared,scomparso
interrupted,sospeso
stock,azione
readers,lettori
dreadful,terribile
female,femmina
protect,proteggere
accustomed,avvezzo
virginia,Virginia
type,Digitare
recognized,riconosciuto
salt,sale
destroyed,distrutto
signs,segni
innocent,innocente
temper,temperare
plenty,abbondanza
pope,papa
avoid,evitare
hurried,affrettato
represented,rappresentato
favor,favore
mental,mentale
attitude,atteggiamento
returning,ritorno
admiration,ammirazione
brothers,fratelli
anxiety,ansia
queen,Regina
teach,insegnare
count,contare
curiosity,curiosità
solemn,solenne
causes,cause
vessels,vasi
compelled,costretto
dance,danza
hotel,Hotel
wicked,malvagio
fled,fuggito
kissed,baciato
guns,pistole
fill,riempire
visible,visibile
younger,minore
guide,guida
earnest,serio
actual,attuale
companions,compagni
prisoner,prigioniero
miserable,miserabile
lad,ragazzo
harm,danno
views,visualizzazioni
irish,irlandese
utterly,completamente
ends,estremità
shop,negozio
stairs,scala
pardon,perdono
gay,gay
beg,elemosinare
seldom,raramente
kinds,tipi
record,disco
fat,grasso
sand,sabbia
violent,violento
branches,rami
inquired,chiese
iv,iv
september,settembre
worn,logoro
ireland,Irlanda
flat,piatto
departure,partenza
delivered,consegnato
gift,regalo
ruin,rovinare
skill,abilità
cattle,bestiame
equipment,attrezzatura
temple,tempio
calls,chiamate
earlier,prima
license,licenza
visited,visitato
en,it
consent,consenso
sufficiently,sufficientemente
natives,nativi
wound,ferita
laughter,risata
contained,contenuta
perceived,percepito
scattered,sparpagliato
whence,da cui
rushed,affrettato
chiefly,principalmente
bold,grassetto
anywhere,dovunque
witness,testimone
foolish,stolto
helped,aiutato
kitchen,cucina
sell,vendere
anybody,nessuno
self,se stesso
extremely,estremamente
treatment,trattamento
throat,gola
dreams,sogni
patient,paziente
speed,velocità
growth,crescita
quantity,quantità
latin,latino
immense,immenso
conclusion,conclusione
computer,Computer
affected,influenzato
severe,grave
excuse,scusa
triumph,trionfo
origin,origine
joseph,Joseph
slept,dormiva
eternal,eterno
thine,la tua
audience,pubblico
pages,pagine
sounds,suoni
swift,veloce
limited,limitato
wings,Ali
stepped,un passo
services,Servizi
library,biblioteca
remaining,residuo
containing,contenente
base,base
confusion,confusione
win,vincere
maid,cameriera
charming,affascinante
editions,edizioni
attended,frequentato
softly,dolcemente
reality,la realtà
performed,eseguita
glorious,glorioso
likewise,allo stesso modo
site,luogo
sail,vela
frightened,spaventato
acquainted,conoscenza
unhappy,infelice
feared,temuto
article,articolo
prisoners,prigionieri
store,negozio
adopted,adottato
shalt,sarai
remark,osservazione
cook,cuocere
thousands,migliaia
pause,pausa
inclined,inclinato
convinced,convinto
band,gruppo musicale
valuable,prezioso
hence,quindi
desert,deserto
effects,effetti
kiss,bacio
plant,pianta
ice,ghiaccio
ball,palla
stick,bacchetta
absolute,assoluto
readily,prontamente
behold,vedere
fierce,feroce
argument,discussione
observe,osservare
blessed,benedetto
bosom,seno
rage,rabbia
striking,suggestivo
discovery,scoperta
creatures,creature
shouted,gridò
guilty,colpevole
related,correlata
setting,ambiente
forgot,dimenticato
punishment,punizione
gun,pistola
slightly,leggermente
articles,articoli
police,polizia
mysterious,misterioso
extended,esteso
confess,confessare
shade,ombra
murder,omicidio
emotion,emozione
destruction,distruzione
wondered,si chiese
increasing,crescente
hide,nascondere
expedition,spedizione
horror,orrore
local,del posto
expenses,spese
ignorant,ignorante
doctrine,dottrina
generous,generoso
range,gamma
host,ospite
wet,bagnato
cloud,nube
mystery,mistero
ed,Ed
waste,rifiuto
changes,i cambiamenti
possess,possedere
consciousness,coscienza
february,febbraio
trembling,tremito
disease,malattia
formerly,precedentemente
spend,trascorrere
production,produzione
source,fonte
mankind,umanità
universal,universale
deck,mazzo
sees,vede
habits,abitudini
estate,tenuta
aunt,zia
reign,regno
humble,umile
compliance,conformità
delay,ritardo
shining,splendente
reported,segnalati
hers,la sua
unfortunate,sfortunato
midnight,mezzanotte
listening,ascoltando
flower,fiore
hero,eroe
accomplished,compiuto
doth,doth
classes,classi
thanks,Grazie
banks,banche
philosophy,filosofia
belong,appartenere
finger,dito
comfortable,confortevole
market,mercato
cap,berretto
waves,onde
woman's,femminile
glanced,guardò
troubled,agitato
difficulties,le difficoltà
picked,raccolto
european,europeo
purposes,scopi
somewhere,da qualche parte
delighted,Contentissimo
pushed,spinto
press,stampa
household,domestico
fleet,flotta
baby,bambino
region,regione
lately,ultimamente
uttered,enunciata
exact,esatto
image,Immagine
ages,età
murmured,mormorò
melancholy,malinconia
suspicion,sospetto
bowed,chino
refuse,rifiuto
elizabeth,Elisabetta
staff,personale
liability,responsabilità
we'll,bene
enjoyed,goduto
stretched,teso
gaze,guardare fisso
belonged,apparteneva
ashamed,vergognoso
reward,ricompensa
meal,pasto
blame,colpa
nodded,annuì
status,stato
opinions,opinioni
indicate,indicare
poem,poesia
savage,selvaggio
arise,sorgere
voyage,viaggio
misery,miseria
guests,ospiti
painted,dipinto
attend,assistere
afford,permettersi
donate,donare
job,lavoro
proceed,procedere
loves,ama
forehead,fronte
regret,rammarico
plainly,chiaramente
risk,rischio
ad,anno Domini
lighted,illuminato
angel,angelo
rapid,rapido
distinct,distinto
doubtless,senza dubbio
properly,propriamente
wit,spirito
fame,fama
singular,singolare
error,errore
utmost,massimo
methods,metodi
reputation,reputazione
appeal,appello
she's,lei è
w,w
strongly,fortemente
margaret,margaret
lack,mancanza
breaking,rottura
dawn,alba
violence,violenza
fatal,fatale
render,rendere
career,carriera
design,design
displayed,visualizzati
gets,prende
commercial,commerciale
forgive,perdonare
lights,luci
agreeable,piacevole
suggestion,suggerimento
utter,totale
sheep,pecora
resolution,risoluzione
spare,scorta
patience,pazienza
domestic,domestico
concluded,concluso
tis,TIS
farm,azienda agricola
reference,riferimento
chinese,Cinese
exist,esistere
corn,Mais
approaching,si avvicina
alike,nello stesso modo
mounted,a cavallo
jane,jane
issue,problema
key,chiave
providing,fornitura
majority,maggioranza
measures,le misure
towns,città
flame,fiamma
boston,boston
dared,osato
ignorance,ignoranza
reduced,ridotto
occasionally,di tanto in tanto
y,y
weakness,debolezza
furnished,arredato
china,Cina
priests,sacerdoti
flying,volante
cloth,stoffa
gazed,guardato
profit,profitto
fourth,il quarto
bell,campana
hitherto,finora
benefit,vantaggio
movements,movimenti
eagerly,avidamente
acted,agito
urged,ha esortato
ascii,ascii
disposed,disposto
electronically,elettronicamente
atmosphere,atmosfera
chapter,capitolo
begged,pregò
helen,Helen
hole,foro
invited,invitato
borne,borne
departed,partito
catholic,cattolico
files,File
reasonable,ragionevole
sugar,zucchero
replacement,sostituzione
sigh,sospiro
humanity,umanità
thrust,spinta
frame,telaio
opposition,opposizione
disk,disco
haste,fretta
lonely,solitario
artist,artista
knight,cavaliere
quarters,alloggio
charm,fascino
substance,sostanza
rolled,laminato
email,e-mail
flung,flung
celebrated,celebre
division,divisione
slavery,schiavitù
verse,versetto
decision,decisione
probable,probabile
painful,doloroso
governor,governatore
forever,per sempre
turns,giri
branch,ramo
ocean,oceano
rear,parte posteriore
leader,capo
delightful,delizioso
stared,fissò
boats,barche
keen,acuto
disposition,disposizione
senses,sensi
occasions,occasioni
readable,leggibile
beloved,diletto
inches,pollici
bones,le ossa
enthusiasm,entusiasmo
materials,materiale
luck,fortuna
derived,derivato
managed,gestito
community,comunità
apparent,apparente
preserved,conservato
magnificent,magnifico
hurry,fretta
scheme,schema
oil,olio
thence,di là
reaching,raggiungendo
dim,offuscare
wretched,disgraziato
hanging,sospeso
pipe,tubo
useless,inutile
nevertheless,tuttavia
print,stampare
smooth,liscio
solid,solido
pursued,perseguiti
necessarily,necessariamente
build,costruire
attempted,tentata
centuries,secoli
eggs,uova
equivalent,equivalente
hastily,frettolosamente
burned,bruciato
you'd,si aveva
recent,recente
oh,Oh
travel,viaggio
cries,grida
noon,mezzogiorno
crying,pianto
generations,generazioni
located,collocato
cabin,cabina
announcement,annuncio
britain,Gran Bretagna
compared,rispetto
handed,consegnato
cease,cessare
smaller,più piccola
circumstance,circostanza
tent,tenda
frequent,frequente
alarm,allarme
nervous,nervoso
beast,bestia
what's,ciò che è
aloud,a voce alta
independent,indipendente
gates,cancelli
distinction,distinzione
essential,essenziale
observation,osservazione
stronger,più forte
recovered,recuperato
belonging,appartenente
loving,amorevole
masters,maestri
writers,scrittori
cf.,cf.
permanent,permanente
mortal,mortale
stern,poppa
gratitude,gratitudine
preserve,conserva
burden,onere
aspect,aspetto
millions,milioni
merry,allegro
knife,coltello
dread,terrore
clever,intelligente
applicable,applicabile
district,quartiere
shadows,ombre
jim,jim
silk,seta
failure,fallimento
links,Collegamento
cent,centesimo
sentiment,sentimento
amid,tra
profits,profitti
agent,agente
finds,reperti
Russia,Russia
bade,Bade
Russian,russo
desperate,disperato
union,unione
imagined,immaginato
contempt,disprezzo
raising,raccolta
lords,signori
hell,inferno
separated,separato
grant,concedere
seriously,sul serio
tribes,tribù
hit,colpire
enormous,enorme
defective,difettoso
conviction,convinzione
secured,assicurato
mixed,misto
insisted,insistito
wooden,di legno
prefer,preferire
prayers,preghiere
fever,febbre
selected,selezionato
daughters,figlie
treat,trattare
warning,avvertimento
flew,volò
speaks,parla
developed,sviluppato
impulse,impulso
slipped,scivolato
ours,nostro
Johnson,Johnson
mistaken,sbagliato
damages,indennizzo
ambition,ambizione
resumed,ripreso
christmas,Natale
yield,dare la precedenza
ideal,ideale
schools,scuole
confirmed,confermato
descended,disceso
rush,corsa
falls,cadute
deny,negare
calculated,calcolato
correct,corretta
perform,eseguire
hadn't,non aveva
somehow,in qualche modo
accordingly,di conseguenza
stayed,rimasto
acquired,acquisita
counsel,consiglio
distress,angoscia
sins,peccati
notion,nozione
discussion,discussione
constitution,costituzione
anne,anne
hundreds,centinaia
instrument,strumento
firmly,fermamente
actions,azioni
steady,costante
remarks,Osservazioni
empire,impero
elements,elementi
idle,inattivo
pen,penna
entering,entrare
online,on-line
africa,Africa
permit,permesso
th',th '
tide,marea
vol,vol
leaned,appoggiò
college,college
maintain,mantenere
sovereign,sovrano
tail,coda
generation,generazione
crowded,affollato
fears,paure
nights,notti
limitation,limitazione
tied,legato
horrible,orribile
cat,gatto
displaying,visualizzazione
port,porto
male,maschio
experienced,esperto
opposed,contrario
treaty,trattato
contents,contenuto
rested,riposato
mode,modalità
poured,riversato
les,Les
occur,si verificano
seeking,cerca
practically,in pratica
abandoned,abbandonato
reports,rapporti
eleven,undici
sank,affondò
begins,inizia
founded,fondato
brings,porta
trace,traccia
instinct,istinto
collected,raccolto
scotland,Scozia
characteristic,caratteristica
chose,ha scelto
cheerful,allegro
tribe,tribù
costs,costi
threatened,minacciata
arrangement,disposizione
western,occidentale
sang,cantava
beings,esseri
sam,sam
pressure,pressione
politics,politica
sorts,specie
shelter,riparo
rude,maleducato
scientific,scientifico
revealed,rivelato
winds,venti
riding,equitazione
scenes,scene
shake,scuotere
industry,industria
claims,reclami
pp.,pp.
merit,merito
profession,professione
lamp,lampada
interview,colloquio
territory,territorio
sleeping,addormentato
sex,sesso
coffee,Caffè
devotion,devozione
thereof,di ciò
creation,creazione
trail,pista
romans,romani
supported,supportato
requires,richiede
fathers,padri
prospect,prospettiva
obey,obbedire
alexander,Alessandro
shone,brillava
operation,operazione
northern,settentrionale
nurse,infermiera
profound,profondo
hungry,Affamato
scott,Scott
sisters,sorelle
assure,assicurare
exceedingly,eccessivamente
match,incontro
wrath,ira
continually,continuamente
rest.,riposo.
gifts,i regali
folly,follia
chain,catena
uniform,uniforme
debt,debito
teaching,insegnamento
venture,avventurarsi
execution,esecuzione
shoes,scarpe
mood,umore
crew,equipaggio
perceive,percepire
accounts,conti
eating,mangiare
multitude,moltitudine
declare,dichiarare
yard,yard
o'er,o'er
astonishment,stupore
version,versione
vague,vago
odd,bizzarro
grateful,grato
nearest,più vicino
infinite,infinito
elsewhere,altrove
copying,copiatura
apartment,appartamento
activity,attività
wives,mogli
parted,parted
security,sicurezza
cared,curato
sensible,sensibile
owing,dovuto
martin,balestruccio
saturday,Sabato
cottage,Cottage
jews,ebrei
leaning,pendente
capacity,capacità
joe,joe
settle,risolvere
referred,di cui
francis,Francesco
holder,titolare
involved,coinvolti
sunshine,luce del sole
dutch,olandese
council,consiglio
princes,principi
ate,mangiò
examination,visita medica
steel,acciaio
strangers,estranei
beheld,contemplato
test,test
noted,noto
slightest,minimo
widow,vedova
charity,carità
realized,realizzato
element,elemento
shed,capannone
errors,errori
communication,comunicazione
reflection,riflessione
attacked,attaccato
organization,organizzazione
maintained,mantenuto
restored,restaurato
folks,gente
concealed,nascosto
accordance,conformità
heavens,cieli
star,stella
examined,esaminato
deeds,gesta
wordforms,wordforms
somebody,qualcuno
incident,incidente
oath,giuramento
guest,ospite
bar,bar
row,riga
poverty,povertà
bottle,bottiglia
prevented,impedito
bless,benedire
stir,agitare
intense,intenso
completed,completato
quarrel,litigare
touching,toccante
inner,interno
available,a disposizione
fix,fissare
resistance,resistenza
unusual,insolito
deed,atto
derive,derivare
hollow,cavo
suspected,sospetto
contains,contiene
sighed,sospirò
province,Provincia
deserted,abbandonato
establishment,istituzione
vote,Vota
muttered,borbottò
thither,là
oxford,Oxford
cavalry,cavalleria
lofty,elevato
endure,sopportare
succeed,avere successo
leg,gamba
bid,offerta
alice,alice
hated,odiato
civilization,civiltà
u.s.,noi.
acting,recitazione
landed,atterrato
christians,cristiani
passions,passioni
interior,interno
scarce,scarso
lightly,leggermente
disturbed,disturbato
supreme,supremo
hang,appendere
notwithstanding,nonostante
shock,shock
exception,eccezione
offering,offerta
display,display
strain,sforzo
drank,bevuto
confined,confinato
o,o
exhausted,esausto
poets,poeti
sounded,suonava
aim,AIM
critical,critico
jerusalem,Gerusalemme
directions,indicazioni
negro,negro
fearful,pauroso
standard,Standard
studied,studiato
bag,Borsa
n,n
buildings,edifici
consequences,conseguenze
commenced,iniziato
deeper,più profondo
repeat,ripetere
driving,guida
beasts,bestie
track,traccia
rid,liberare
holds,detiene
residence,residenza
steadily,costantemente
intimate,intimo
drinking,potabile
swear,giurare
treasure,Tesoro
fun,divertimento
throwing,lancio
apt,adatto
enterprise,impresa
queer,strano
seed,seme
tower,Torre
runs,corre
defend,difendere
favourite,preferito
desires,desideri
heavily,pesantemente
assembled,assemblato
existed,esistito
depends,dipende
poems,poesie
hesitated,esitato
stuff,cose
section,sezione
settlement,insediamento
staring,fissando
sole,suola
roads,strade
plate,piatto
mexico,Messico
overcome,superare
pains,dolori
performing,l'esecuzione
dwell,abitare
grounds,motivo
taxes,le tasse
marble,marmo
recently,da poco tempo
tones,toni
ability,capacità
awake,sveglio
walter,walter
wave,onda
shaking,tremante
folk,popolare
possibility,possibilità
butter,burro
fury,furia
marched,marciato
moses,Mosé
writes,scrive
issued,rilasciato
sailed,navigato
instructions,istruzione
hatred,odio
pursuit,ricerca
pull,Tirare
furniture,mobilia
additions,integrazioni
hid,nascosto
rope,corda
vi,VI
adventure,avventura
royalty,reali
vanished,scomparso
arts,arti
elder,Sambuco
signal,segnale
wanting,volendo
supplied,fornito
feast,festa
safely,tranquillamente
burn,bruciare
describe,descrivere
references,Riferimenti
lesson,lezione
annual,annuale
card,carta
passes,pass
application,applicazione
intelligent,intelligente
county,contea
beaten,battuto
presents,regali
format,formato
flow,flusso
sixty,sessanta
scale,scala
damage,danno
marks,votazione
obtaining,ottenendo
moreover,inoltre
commerce,commercio
startled,spaventato
southern,meridionale
consequently,di conseguenza
outer,esterno
belongs,appartiene
ben,Ben
wrought,battuto
average,media
naked,nudo
conducted,condotto
rivers,fiumi
songs,canzoni
obvious,ovvio
foundation,fondazione
concern,preoccupazione
ceremony,cerimonia
magic,Magia
campaign,campagna
hunting,a caccia
carolina,carolina
liberal,liberale
whisper,sussurro
largely,in gran parte
commonly,comunemente
torn,strappato
exists,esiste
contributions,contributi
hunt,caccia
teacher,insegnante
christianity,cristianesimo
lawyer,avvocato
operations,operazioni
detail,dettaglio
shortly,in breve
caesar,Cesare
wondering,chiedendosi
leaders,capi
blessing,benedizione
princess,Principessa
he'd,aveva
altar,altare
tenderness,tenerezza
tiny,piccolo
web,web
cardinal,cardinale
sharply,acutamente
regiment,reggimento
chest,petto
distinctly,distintamente
purple,viola
creating,la creazione di
gather,raccogliere
depth,profondità
indignation,indignazione
performance,prestazione
election,elezione
prosperity,prosperità
gloomy,cupo
conception,concezione
clerk,impiegato
decide,decidere
drunk,ubriaco
victim,vittima
reflected,riflessa
pour,versare
preceding,precedente
individuals,individui
gazing,guardando
absurd,assurdo
lift,sollevamento
gesture,gesto
armies,eserciti
limbs,arti
manage,gestire
brethren,confratelli
hugh,hugh
plays,giochi
hastened,affrettato
dragged,trascinato
motive,motivo
whatsoever,qualsiasi
pointing,puntamento
verses,versi
pronounced,pronunciato
exchange,scambio
definite,definito
emperor,imperatore
tendency,tendenza
remote,a distanza
finish,finire
flag,bandiera
boots,stivali
enabled,abilitato
administration,amministrazione
denied,negato
churches,chiese
rarely,raramente
earnestly,ardentemente
considering,considerando
previously,in precedenza
ugly,brutto
bears,orsi
signed,firmato
genuine,genuino
harmless,innocuo
mingled,mescolato
obedience,obbedienza
walks,passeggiate
training,formazione
badly,male
feed,alimentazione
central,centrale
contrast,contrasto
relieved,sollevato
romance,romanza
Mississippi,Mississippi
structure,struttura
payment,Pagamento
pace,ritmo
passages,passaggi
succession,successione
persuaded,persuasi
sources,fonti
inquiry,inchiesta
inspired,ispirato
angels,Angeli
roll,Rotolo
wilt,appassire
inch,pollice
troubles,problemi
perfection,perfezione
Lee,sottovento
wherever,dovunque
owe,dovere
handle,maniglia
advantages,vantaggi
trip,viaggio
shoot,sparare
fortunate,fortunato
newspaper,giornale
employment,occupazione
fitted,attrezzato
refuge,rifugio
misfortune,sventura
providence,provvidenza
owns,possiede
cutting,taglio
beard,barba
stirred,mescolato
tear,lacrima
Dan,Dan
resist,resistere
Bob,Bob
depths,profondità
maiden,nubile
determine,determinare
commission,commissione
merchant,mercante
whereas,mentre
crossing,incrocio
independence,indipendenza
lively,vivace
breeze,brezza
provinces,province
Jean,Jean
virtues,virtù
conceived,concepito
relative,parente
solitary,solitario
smell,odore
wandering,vagare
thereby,in tal modo
eighteen,diciotto
locked,bloccato
provision,fornitura
courts,tribunali
eaten,mangiato
historical,storico
regarding,per quanto riguarda
Florence,Firenze
preferred,preferito
pick,scegliere
ruined,rovinato
wherein,dove
vanity,vanità
condemned,condannato
deliver,consegnare
unexpected,inaspettato
desk,scrivania
gross,lordo
lane,corsia
happens,accade
represent,rappresentare
Billy,manganello
root,radice
Holland,Olanda
mud,fango
respectable,rispettabile
cleared,eliminato
feels,si sente
fruits,frutta
testimony,testimonianza
Milton,Milton
existing,esistente
bride,sposa
rang,suonò
ranks,ranghi
responsibility,responsabilità
beating,battito
disappointed,deluso
suitable,adatto
depend,dipendere
judges,giudici
giant,gigante
grasp,afferrare
arrive,arrivo
simplicity,semplicità
autumn,autunno
absent,assente
legally,legalmente
veil,velo
gloom,oscurità
doubtful,dubbioso
suspect,sospettare
weapons,Armi
limits,limiti
determination,determinazione
feeble,debole
prophet,profeta
Shak,Shak
gathering,raccolta
basis,base
examine,esaminare
corrupt,corrompere
payments,pagamenti
returns,ritorna
laying,posa
prize,premio
instances,casi
Greeks,Greci
d,d
they're,sono
theatre,Teatro
purchase,Acquista
comparison,confronto
composition,composizione
rival,rivale
someone,qualcuno
realize,rendersi conto
defeat,la sconfitta
demands,richieste
foe,nemico
shared,diviso
consists,consiste
studies,studi
balance,equilibrio
intercourse,rapporto
ID,ID
forming,formando
slender,snello
coach,allenatore
criminal,penale
knocked,bussato
silly,sciocco
humour,umorismo
masses,masse
indifferent,indifferente
recall,richiamare
occupation,occupazione
discourse,discorso
keeps,continua
regions,regioni
intervals,intervalli
assist,assistere
novel,romanzo
intellect,intelletto
leads,conduce
hither,qua
tales,racconti
sale,vendita
revenge,vendetta
Lucy,Lucy
yonder,là
resources,risorse
jealous,geloso
we're,siamo
wheel,ruota
invitation,invito
narrative,narrazione
risen,aumentato
burnt,bruciato
sentiments,sentimenti
inferior,inferiore
amusement,divertimento
Marie,Marie
flash,veloce
recognize,riconoscere
swiftly,rapidamente
portrait,ritratto
create,creare
summoned,convocato
suggest,suggerire
induced,indotta
conflict,conflitto
fed,alimentato
curse,maledizione
disappointment,delusione
helpless,indifeso
preparing,preparazione
construction,costruzione
Lincoln,Lincoln
zeal,zelo
responsible,responsabile
indicated,indicato
groups,gruppi
positive,positivo
Germans,tedeschi
attracted,attratto
vengeance,vendetta
fort,forte
club,club
cure,cura
stout,corpulento
missed,perse
gracious,gentile
include,includere
flood,inondazione
satisfy,soddisfare
agony,agonia
respects,omaggio
ventured,avventurato
implied,implicito
Maria,Maria
stupid,stupido
seas,mari
Spaniards,spagnoli
grain,grano
enjoyment,godimento
wearing,indossare
indifference,indifferenza
conceal,nascondere
horizon,orizzonte
pleasures,piaceri
therein,ivi
precisely,precisamente
Canada,Canada
day's,giorno
assume,assumere
registered,registrato
estimate,Stima
steep,ripido
route,itinerario
gardens,giardini
visitor,visitatore
closer,più vicino
harmony,armonia
non,non
thunder,tuono
wire,filo
graceful,grazioso
crept,insinuato
Greece,Grecia
childhood,infanzia
knee,ginocchio
saddle,sella
supplies,forniture
weeping,pianto
mostly,soprattutto
paragraphs,paragrafi
unconscious,inconscio
mutual,reciproco
scorn,disprezzo
grows,cresce
external,esterno
agents,agenti
software,Software
institutions,istituzioni
losing,perdere
universe,universo
clock,orologio
attempts,tentativi
instruction,istruzione
injury,ferita
roots,radici
receipt,ricevuta
jumped,saltato
dearest,carissimo
sore,dolorante
earliest,più presto
finest,migliore
enable,consentire
discipline,disciplina
motives,motivazioni
fastened,fissato
introduction,introduzione
converted,convertito
wilderness,natura selvaggia
confused,confuso
fancied,immaginato
offices,uffici
slip,scivolare
revolution,rivoluzione
wedding,matrimonio
girl's,ragazze
farmer,contadino
silently,silenziosamente
fires,incendi
wept,pianto
behalf,per conto
reckon,fare i conti
responded,risposto
uncertain,incerto
neglected,trascurato
stroke,ictus
exquisite,squisito
engagement,Fidanzamento
dirty,sporco
rolling,rotolamento
platform,piattaforma
messenger,messaggero
privilege,privilegio
admirable,ammirevole
offers,offerte
mischief,dispetto
physician,medico
imposed,imposto
organized,organizzato
covering,copertura
student,alunno
daring,audace
cave,grotta
wars,guerre
convey,trasmettere
he'll,inferno
sincere,sincero
tradition,tradizione
gravely,gravemente
combined,combinato
gallant,galante
sensation,sensazione
travelling,in viaggio
charges,oneri
submit,invio
tragedy,tragedia
specific,specifica
commander,comandante
inn,Locanda
stiff,rigido
accompany,accompagnare
score,Punto
virgin,vergine
farewell,addio
paradise,Paradiso
villages,villaggi
hunger,fame
trembled,tremato
favorite,preferito
criticism,critica
proprietary,proprio
customs,dogana
cotton,cotone
Ruth,pietà
hospital,ospedale
restrictions,restrizioni
outward,esterno
impressed,impressionato
blows,colpi
plains,pianure
flashed,lampo
rent,affitto
prey,preda
owed,dovuto
longing,brama
musical,musicale
satisfactory,soddisfacente
ridiculous,ridicolo
sheet,foglio
disgrace,disonore
colored,colorato
shouldn't,non dovrebbe
originally,originariamente
Samuel,Samuel
wages,salari
papa,papà
gas,gas
inevitable,inevitabile
extensive,esteso
leisure,tempo libero
deadly,mortale
chin,mento
claimed,ha sostenuto
glow,ardere
husband's,Il marito di
emotions,emozioni
Adam,Adamo
jealousy,gelosia
leaf,foglia
publication,pubblicazione
Englishman,inglese
Allah,Allah
Jones,Jones
hostile,ostile
wandered,vagato
railway,ferrovia
translation,traduzione
procession,processione
betrayed,tradito
pound,libbra
admired,ammirata
elected,eletto
Pierre,Pierre
sunk,affondato
ruins,rovine
eastern,orientale
roses,Rose
citizen,cittadino
reminded,ricordato
deceived,ingannati
tables,tavoli
beach,spiaggia
starting,a partire
funeral,funerale
arrested,arrestato
flour,Farina
feature,caratteristica
correspondence,corrispondenza
consisted,consisteva
counted,contati
reserve,prenotare
proceedings,procedimento
roar,ruggito
romantic,romantico
twenty-five,venticinque
hut,capanna
strangely,stranamente
absorbed,assorbito
propose,proporre
seats,sedili
bark,abbaiare
reception,ricezione
pleasing,piacevole
attained,raggiunto
wake,svegliare
research,ricerca
prayed,pregato
monarch,monarca
clothing,capi di abbigliamento
dollar,dollaro
illness,malattia
calmly,con calma
obeyed,obbedito
heartily,di cuore
pressing,urgente
daylight,luce del giorno
warriors,guerrieri
jest,scherzo
abruptly,improvvisamente
washed,lavato
comment,commento
metal,metallo
preparations,preparativi
nerves,nervi
solution,soluzione
pretended,finto
sixteen,sedici
assembly,montaggio
tobacco,tabacco
entity,entità
dwelling,dimora
depart,partire
swung,oscillato
bitterly,amaramente
alteration,alterazione
colony,colonia
disclaimers,disclaimer
wing,ala
peaceful,tranquillo
lion,Leone
opportunities,opportunità
alarmed,allarmato
furnish,fornire
resting,riposo
accused,accusato
culture,cultura
writings,scritti
dwelt,dwelt
conquered,conquistato
trick,trucco
trusted,di fiducia
column,colonna
financial,finanziario
cunning,abile
preparation,preparazione
drama,dramma
joke,scherzo
entertained,intrattenuti
mist,nebbia
hypertext,ipertesto
shell,conchiglia
medicine,medicina
proofread,correggere le bozze
nest,nido
reverence,riverenza
situated,situato
yielded,ceduto
conceive,concepire
appointment,appuntamento
lessons,Lezioni
fetch,andare a prendere
tomb,tomba
candle,candela
offence,offesa
coarse,grossolano
heap,mucchio
mixture,miscela
homes,le case
model,modello
men's,Uomo
defect,difetto
destined,destinata
occasional,occasionale
fourteen,quattordici
hint,suggerimento
knights,cavalieri
solicit,sollecitare
dreamed,sognato
objection,obiezione
craft,mestiere
acid,acido
namely,cioè
Asia,Asia
neglect,trascurare
data,dati
weapon,arma
confessed,confessato
arrangements,accordi
repose,riposo
complying,rispettare
copied,copiato
pink,rosa
user,utente
heels,tacchi
grandfather,nonno
other's,altri
income,reddito
i.e.,cioè
regards,Saluti
streams,flussi
vigorous,vigoroso
accepting,accettando
bishop,vescovo
lightning,fulmine
authors,autori
flames,fiamme
observations,osservazioni
compressed,compresso
sport,sport
powder,polvere
beds,letti
orange,arancia
painting,la pittura
shout,grido
Austria,Austria
bath,bagno
careless,negligente
chap,screpolatura
derivative,derivato
roused,risvegliato
primitive,primitivo
doorway,portone
climbed,scalato
volumes,volumi
vulgar,volgare
arguments,argomenti
1st,1 °
sunset,tramonto
convenient,comodo
mail,posta
recalled,ricordato
wrapped,avvolto
abode,dimora
planted,piantato
paint,vernice
surrender,resa
establish,stabilire
mild,mite
promptly,prontamente
appearing,apparendo
department,dipartimento
parish,parrocchia
Stephen,Stefano
nay,anzi
lit,illuminato
handkerchief,fazzoletto
basket,cestino
easier,Più facile
deserve,meritare
quit,smettere
assurance,garanzia
mirror,specchio
plot,tracciare
yer,yer
upward,in su
sadly,purtroppo
secretary,segretario
adding,aggiungendo
modest,modesto
dish,piatto
cares,cure
straw,cannuccia
net,netto
advised,consigliato
heavenly,celeste
largest,maggiore
proceeding,procedere
impatient,impaziente
wounds,ferite
warmth,calore
certainty,certezza
restless,irrequieto
meantime,intanto
rays,raggi
salvation,salvezza
lovers,Gli amanti
experiment,sperimentare
shores,sponde
today,oggi
tremendous,enorme
afforded,offerta
moonlight,chiaro di luna
intend,avere intenzione
California,California
cultivated,coltivato
flushed,arrossato
Shakespeare,Shakespeare
newspapers,giornali
rocky,roccioso
pious,pio
wont,solito
steam,vapore
improvement,miglioramento
garments,indumenti
Ned,Ned
treasury,tesoreria
merchants,i commercianti
perpetual,perpetuo
trained,allenato
products,prodotti
affectionate,affettuoso
dispute,controversia
visitors,visitatori
poison,veleno
proposition,proposizione
maybe,può essere
rifle,fucile
warned,avvertito
parting,separazione
shield,scudo
erected,eretto
employ,impiegare
prevailed,prevalsa
talent,talento
rises,sorge
climate,clima
chairs,sedie
searched,cercato
unlike,a differenza di
recover,recuperare
mate,compagno
arrange,organizzare
fortunes,fortune
puzzled,perplesso
committee,Comitato
aged,anziano
Ohio,Ohio
ashes,cenere
ghost,fantasma
b,B
promises,promesse
bushes,cespugli
effective,efficace
distinguish,distinguere
manifest,manifesto
comparatively,comparativamente
esteem,stima
blew,soffiò
revelation,rivelazione
wash,lavaggio
recognition,riconoscimento
confession,confessione
clay,argilla
nonsense,senza senso
trunk,tronco
management,gestione
undoubtedly,indubbiamente
dried,secco
Dorothy,Dorothy
chiefs,capi
coal,carbone
stolen,rubare
earthly,terrestre
restore,ristabilire
indirectly,indirettamente
lasted,durato
selfish,egoista
renewed,rinnovato
canoe,canoa
protest,protesta
vice,vice
races,gare
deemed,ritenuto
temporary,temporaneo
pile,mucchio
Frederick,Frederick
chapel,cappella
moderate,moderare
spell,fare lo spelling
Massachusetts,Massachusetts
upright,montante
quoted,citato
area,la zona
bone,osso
solitude,solitudine
instruments,strumenti
formal,formale
students,alunni
greatness,grandezza
struggling,lottare
Monday,Lunedi
reproach,rimprovero
altered,alterato
grim,truce
leaped,balzato
Venice,Venezia
federal,federale
questioned,interrogato
editor,editore
desirable,auspicabile
acknowledge,riconoscere
motionless,immobile
remedy,rimedio
bestowed,elargito
pursue,perseguire
representative,rappresentante
pole,polo
gladly,volentieri
linen,biancheria
vital,vitale
sink,lavello
pacific,Pacifico
hopeless,senza speranza
dangers,pericoli
gratefully,con gratitudine
president,Presidente
travelled,viaggiato
ward,reparto
nephew,nipote
ms,Signorina
cheer,rallegrare
bloody,sanguinoso
siege,assedio
commands,comandi
justified,giustificato
Atlantic,atlantico
stomach,stomaco
improved,migliorata
admire,ammirare
openly,apertamente
sailors,marinai
abide,rispettare
advancing,avanza
forests,foreste
records,record
Polly,Polly
recorded,registrato
modification,modifica
dramatic,drammatico
statements,dichiarazioni
upstairs,di sopra
varied,vario
letting,locazione
Wilson,Wilson
comrades,compagni
sets,imposta
descent,discesa
whither,dove
envy,invidia
load,caricare
pretend,far finta
folded,piegato
brass,ottone
internal,interno
furious,furioso
curtain,tenda
healthy,salutare
obscure,oscuro
summit,vertice
alas,ahimè
fifth,quinto
center,centro
faced,di fronte
cheap,a buon mercato
saints,santi
colonel,colonnello
Egyptian,egiziano
contest,concorso
owned,Di proprietà
adventures,avventure
exclusion,esclusione
seize,sequestrare
chances,possibilità
springs,molle
alter,alterare
landing,atterraggio
fence,recinto
leagues,campionati
glimpse,intravedere
statue,statua
contract,contrarre
luxury,lusso
artillery,artiglieria
doubts,dubbi
saving,risparmio
fro,indietro
string,corda
combination,combinazione
awakened,risvegliato
faded,sbiadito
arrest,arresto
protected,protetta
temperature,temperatura
strict,rigoroso
contented,contento
professional,professionale
intent,intento
brother's,fratelli
injured,ferito
neighborhood,Quartiere
Andrew,Andrea
abundance,abbondanza
smoking,fumo
yourselves,voi
medical,medico
garrison,guarnigione
likes,piace
corps,corpo
heroic,eroico
inform,far sapere
wife's,La moglie di
retained,mantenuto
agitation,agitazione
nobles,nobili
prominent,prominente
institution,istituzione
judged,giudicato
embrace,abbracciare
wheels,ruote
closing,chiusura
damaged,danneggiato
pack,pacchetto
affections,gli affetti
eldest,maggiore
anguish,angoscia
surrounding,circostante
obviously,ovviamente
strictly,rigorosamente
capture,catturare
drops,gocce
inquire,chiedere informazioni
ample,ampio
remainder,resto
justly,giustamente
recollection,ricordo
deer,cervo
answers,risposte
bedroom,Camera da letto
purely,puramente
bush,cespuglio
plunged,immerso
thyself,te stesso
joint,comune
refer,fare riferimento
expecting,in attesa
madam,signora
railroad,ferrovia
spake,parlò
respecting,rispetto
Jan,Jan
columns,colonne
weep,piangere
identify,identificare
discharge,scarico
bench,panca
Ralph,Ralph
heir,erede
oak,quercia
rescue,salvare
limit,limite
unpleasant,sgradevole
anxiously,con ansia
innocence,innocenza
awoke,si svegliò
expectation,aspettativa
incomplete,incompleto
program,programma
reserved,riservato
secretly,segretamente
we've,abbiamo
invention,invenzione
faults,difetti
disagreeable,sgradevole
piano,pianoforte
defeated,sconfitto
charms,fascino
purse,borsa
persuade,persuadere
deprived,deprivato
electric,elettrico
endless,infinito
interval,intervallo
chase,inseguire
heroes,eroi
invisible,invisibile
well-known,notorio
occupy,occupare
Jacob,Giacobbe
gown,toga
cruelty,crudeltà
lock,serratura
lowest,minore
hesitation,esitazione
withdrew,ritirato
proposal,proposta
destiny,destino
recognised,riconosciuto
commons,popolo
foul,fallo
loaded,caricato
amidst,tra
titles,titoli
ancestors,antenati
types,tipi
commanding,comandante
madness,follia
happily,felicemente
assigned,assegnato
declined,rifiutato
temptation,tentazione
lady's,signora
subsequent,successivo
jewels,gioielli
breathed,respirato
willingly,volentieri
youthful,giovanile
bells,campane
spectacle,spettacolo
uneasy,inquieto
shine,brillare
formidable,formidabile
stately,maestoso
machinery,macchinario
fragments,frammenti
rushing,correndo
attractive,attraente
product,prodotto
economic,economico
sickness,malattia
uses,usi
dashed,tratteggiata
engine,motore
ashore,a terra
dates,date
theirs,il loro
adv,adv
clasped,giunte
international,internazionale
leather,pelle
spared,risparmiato
crushed,schiacciato
interfere,interferire
subtle,sottile
waved,agitò
slope,pendenza
floating,galleggiante
worry,preoccupazione
effected,effettuato
passengers,viaggiatori
violently,violentemente
donation,donazione
steamer,piroscafo
witnesses,Testimoni
specified,specificata
learnt,imparato
stores,negozi
designed,progettato
guessed,intuito
roger,roger
timber,legname
talents,talenti
heed,attenzione
jackson,Jackson
murdered,assassinato
vivid,vivido
woe,dolore
calculate,calcolare
killing,uccisione
laura,laura
savages,selvaggi
wasted,sprecato
trifle,tartufo
funny,divertente
pockets,tasche
philosopher,filosofo
insult,insulto
den,tana
representation,rappresentazione
incapable,incapace
eloquence,eloquenza
dine,cenare
temples,templi
ann,ann
sensitive,sensibile
robin,pettirosso
appetite,appetito
wishing,desiderando
picturesque,pittoresco
douglas,douglas
courtesy,cortesia
flowing,fluente
remembrance,ricordo
lawyers,avvocati
sphere,sfera
murmur,mormorio
elegant,elegante
honourable,onorevole
stopping,sosta
guilt,colpa
welfare,benessere
avoided,evitato
fishing,pesca
perish,perire
sober,sobrio
steal,rubare
delicious,delizioso
infant,infantile
lip,labbro
norman,normanno
offended,offeso
dost,Dost
memories,ricordi
wheat,Grano
japanese,giapponese
humor,umorismo
exhibited,esposto
encounter,incontrare
footsteps,orme
marquis,marchese
smiles,sorrisi
amiable,amabile
twilight,crepuscolo
arrows,frecce
consisting,costituito
park,parco
retire,andare in pensione
economy,economia
sufferings,sofferenze
secrets,segreti
na,n / a
halted,fermato
govern,governare
favourable,favorevole
colors,colori
translated,tradotto
stretch,allungare
formation,formazione
immortal,immortale
gallery,galleria
parallel,parallelo
lean,magro
tempted,tentati
frontier,frontiera
continent,continente
knock,battere
impatience,impazienza
unity,unità
dealing,rapporti
prohibition,divieto
decent,decente
fiery,ardente
images,immagini
tie,cravatta
punished,punito
submitted,presentata
julia,julia
albert,albert
rejoined,ricongiunto
speedily,velocemente
consented,acconsentito
major,maggiore
preliminary,preliminare
cell,cella
void,vuoto
placing,collocazione
prudence,prudenza
egg,Uovo
amazement,stupore
border,confine
artificial,artificiale
hereafter,d'ora in poi
fanny,figa
crimes,crimini
breathe,respirare
exempt,esonerare
anchor,ancora
chicago,Chicago
sits,siede
purchased,acquistato
eminent,eminente
neighbors,vicinato
glowing,raggiante
sunlight,luce del sole
examples,Esempi
exercised,esercitati
wealthy,ricco
seeming,apparente
bonaparte,Bonaparte
shouting,urlando
thanked,ringraziato
illustrious,illustre
curiously,curiosamente
inspiration,ispirazione
seeds,semi
naval,navale
foes,nemici
everyone,tutti
longed,sospirata
abundant,abbondante
doubted,dubitato
painter,pittore
greeted,salutato
erect,eretto
glasses,bicchieri
meanwhile,nel frattempo
shooting,tiro
athens,Atene
wagon,carro
lend,prestare
lent,prestato
crisis,crisi
undertake,intraprendere
particulars,particolari
eh,eh
veins,vene
polite,gentile
anna,Anna
experiences,esperienze
seal,foca
header,intestazione
clergy,clero
mount,montare
array,schieramento
corners,angoli
magazine,rivista
loudly,forte
bitterness,amarezza
texas,Texas
guardian,custode
searching,ricerca
rejected,respinto
harsh,duro
includes,include
boldly,arditamente
maurice,Maurice
kate,kate
lunch,pranzo
pine,pino
shells,conchiglie
seconds,secondi
despite,nonostante
hoping,sperando
injustice,ingiustizia
expressions,espressioni
flies,mosche
push,spingi
tight,stretto
problems,i problemi
landscape,paesaggio
sue,citare in giudizio
protested,protestò
scarlet,scarlatto
abandon,abbandonare
artistic,artistico
mainly,principalmente
measured,misurato
loyal,leale
boiling,bollente
desirous,desideroso
suited,adatto
alliance,alleanza
advise,consigliare
waist,vita
sinking,naufragio
apprehension,apprensione
stable,stabile
gregory,Gregorio
maximum,massimo
commit,commettere
hideous,orrendo
hamilton,hamilton
sweetness,dolcezza
dismissed,destituito
tore,tore
affect,influenzare
shaken,scosso
evils,mali
unworthy,indegno
significance,importanza
modified,modificata
miracle,miracolo
lieu,lieu
peasant,contadino
considerably,considerevolmente
observing,osservando
conveyed,convogliato
resemblance,somiglianza
extend,estendere
riches,ricchezze
personally,personalmente
morality,moralità
rebellion,ribellione
thread,filo
dumb,muto
inclination,inclinazione
forbidden,proibito
copper,rame
differences,differenze
sailor,marinaio
requested,richiesto
Alfred,Alfred
response,risposta
promoting,promuovere
imperial,imperiale
blank,vuoto
purity,purezza
victor,vincitore
bending,curvatura
solemnly,solennemente
twenty-four,venti quattro
minor,minore
del,del
crimson,cremisi
republic,repubblica
teachers,insegnanti
ma'am,signora
danced,danzato
bargain,affare
dealt,affrontato
fatigue,fatica
telephone,telefono
cents,centesimi
whip,frusta
Adams,Adams
dislike,avversione
witnessed,assistito
infantry,fanteria
acres,acri
checked,verificato
countrymen,connazionali
enemy's,nemico di
companies,aziende
normal,normale
shirt,camicia
addresses,indirizzi
introduce,introdurre
sofa,divano
mothers,madri
sweep,spazzare
conversion,conversione
sketch,schizzo
African,africano
deserved,meritato
answering,segreteria
virtuous,virtuoso
Persian,persiano
anyway,comunque
thief,ladro
driver,autista
retain,conservare
constructed,costruito
Daniel,Daniel
UT,UT
Philadelphia,Philadelphia
conspicuous,cospicuo
channel,canale
nobility,nobiltà
Edith,Edith
Berlin,Berlino
editing,la modifica
Cambridge,Cambridge
declaration,dichiarazione
guards,guardie
personality,personalità
smallest,minore
excess,eccesso
separation,separazione
disgust,disgusto
ha,ah
accomplish,realizzare
speeches,discorsi
Herbert,Herbert
convent,convento
rightly,giustamente
suspended,sospeso
reform,riforma
mob,folla
thirst,sete
unnecessary,non necessario
treasures,tesori
asks,chiede
viewed,consultati
designs,disegni
gleam,brillare
threatening,minaccioso
palm,palma
Missouri,Missouri
filling,Riempimento
quoth,quoth
fur,pelliccia
fortnight,due settimane
holes,fori
addressing,indirizzamento
frightful,spaventevole
encourage,incoraggiare
speaker,altoparlante
tribute,omaggio
procure,procurare
frankly,francamente
recommended,consigliato
relieve,alleviare
intentions,intenzioni
unjust,ingiusto
legislation,legislazione
project,progetto
threshold,soglia
merits,meriti
morrow,domani
traces,tracce
induce,indurre
spear,lancia
inward,interiore
pupils,allievi
corresponding,corrispondente
fairy,Fata
conclude,concludere
clung,clung
neat,pulito
lucky,fortunato
lap,giro
session,sessione
torture,tortura
damp,umido
ridge,cresta
spoil,rovinare
liable,responsabile
swords,spade
hearty,cordiale
BC,AVANTI CRISTO
Abraham,Abraham
thoughtful,riflessivo
traveller,viaggiatore
chains,Catene
favorable,favorevole
tin,lattina
imp.,imp.
strongest,più forte
Horace,Horace
dependent,dipendente
couch,divano
bills,fatture
warrant,mandato
complaint,denuncia
endeavour,tentativo
sails,vele
dined,cenato
convention,convenzione
guarded,attento
angle,angolo
widely,ampiamente
Illinois,Illinois
Charlotte,carlotta
endeavoured,sforzati
ardent,ardente
cow,mucca
mill,mulino
victims,vittime
prejudice,pregiudizio
foremost,principale
map,carta geografica
probability,probabilità
porch,veranda
lieutenant,tenente
surprising,sorprendente
fountain,Fontana
sustained,sostenuta
appropriate,adeguata
Ford,Guado
Clara,Clara
assisted,assistita
Lewis,Lewis
rejoice,rallegrarsi
extending,estendendo
marvellous,meravigliosa
clothed,vestita
Jew,ebreo
collar,collare
bands,bande
confident,fiducioso
hasty,frettoloso
nigh,vicino
organ,organo
prose,prosa
privileges,privilegi
selection,selezione
inquiries,richieste
codes,codici
replace,sostituire
saint,santo
districts,quartieri
deliberately,deliberatamente
awe,soggezione
beforehand,in anticipo
strife,conflitto
released,rilasciato
compare,confrontare
beer,birra
retorted,replicò
relate,riferirsi
cheerfully,allegramente
pistol,pistola
presume,presumere
velvet,velluto
wretch,disgraziato
Susan,Susan
Pennsylvania,Pennsylvania
stirring,eccitante
righteousness,giustizia
missing,mancanti
fain,volentieri
facing,di fronte
fashionable,alla moda
producing,produzione
peoples,popoli
positively,positivamente
reasoning,ragionamento
gravity,gravità
disturb,disturbare
sermon,sermone
exchanged,scambiati
partner,compagno
brains,mente
lowered,abbassato
association,associazione
estates,proprietà
abuse,abuso
flock,gregge
niece,nipote
languages,le lingue
asserted,asserito
bodily,corporale
notions,nozioni
Oliver,Oliver
faculty,facoltà
cannon,cannone
thirteen,tredici
sailing,andare in barca
rings,anelli
smart,inteligente
possessions,patrimonio
disciples,discepoli
petty,meschino
widest,più ampia
divisions,divisioni
prudent,prudente
caution,attenzione
justify,giustificare
awhile,un po
boxes,scatole
manuscript,manoscritto
cigar,sigaro
warrior,guerriero
impressions,impressioni
aught,qualche cosa
lifting,sollevamento
inaccurate,inesatto
tidings,notizie
Friday,Venerdì
liquid,liquido
staying,restare
concept,concetto
creek,torrente
lo,Lo
brush,pennello
download,Scaricare
specially,appositamente
cream,crema
meetings,incontri
jump,saltare
unwilling,riluttante
adapted,adattato
practised,esperto
combat,combattere
subdued,sottomesso
Jewish,ebraico
innumerable,innumerevole
blowing,soffiando
extra,extra
civilized,civile
invented,inventato
Japan,Giappone
pitch,intonazione
cliff,scogliera
crowned,coronato
portions,porzioni
awkward,imbarazzante
horrid,orrido
pulling,traino
appreciate,apprezzare
communicated,comunicati
Kentucky,Kentucky
jury,giuria
encountered,incontrato
attacks,attacchi
monster,mostro
Simon,Simon
maintaining,il mantenimento
sites,siti
frozen,congelato
invariably,invariabilmente
dies,muore
survive,sopravvivere
literally,letteralmente
consolation,consolazione
m,m
phenomena,fenomeni
pot,pentola
Ellen,ellen
briefly,brevemente
rice,riso
planned,pianificato
Barbara,Barbara
respected,rispettata
sublime,sublime
dropping,lancio
guy,tipo
behaviour,comportamento
desolate,desolato
penny,centesimo
adopt,adottare
replaced,sostituito
revenue,reddito
formats,formati
hired,assunti
regularly,regolarmente
infringement,violazione
curtains,le tende
eagerness,impazienza
helping,porzione
investigation,indagine
constitutional,costituzionale
insist,insistere
occurs,verifica
fools,sciocchi
inheritance,eredità
latest,più recente
leap,salto
games,i giochi
apple,Mela
visiting,visitare
travellers,i viaggiatori
experiments,esperimenti
hasn't,non ha
pupil,allievo
enjoying,godendo
totally,totalmente
twisted,ritorto
discuss,discutere
firing,sparo
background,sfondo
subscribe,sottoscrivi
tenderly,teneramente
transcribe,trascrivere
descend,scendere
differ,differire
majesty's,maestà di
avail,utilità
disaster,disastro
bet,scommettere
periodic,periodico
bull,Toro
entertainment,divertimento
computers,computer
cursed,maledetto
raw,crudo
fulfilled,soddisfatto
Georgia,Georgia
virus,virus
log,ceppo
skies,cieli
scotch,scotch
embraced,abbracciato
hospitality,ospitalità
faintly,debolmente
Solomon,Salomone
robbed,derubato
cart,carrello
influences,influenze
ascended,asceso
incidents,incidenti
childish,infantile
robe,accappatoio
aboard,a bordo
resembling,simile
reflect,riflettere
dominion,dominio
dreary,triste
serving,servendo
complexion,carnagione
engage,impegnarsi
tents,tende
herd,mandria
attain,raggiungere
collect,collezionare
disclaims,declina
pan,padella
relatives,parenti
borrowed,preso in prestito
convert,convertire
outline,contorno
blown,soffiato
comprehend,comprendere
peasants,contadini
opera,musica lirica
assault,assalto
deceive,ingannare
doctrines,dottrine
representatives,rappresentanti
dedicated,dedito
struggled,lottato
officials,funzionari
hiding,occultamento
paths,percorsi
backs,schiene
prominently,prominente
prices,prezzi
procured,procurato
mourning,lutto
compliment,complimento
heights,altezze
approval,approvazione
gasped,ansimò
breadth,ampiezza
withdraw,ritirarsi
tune,sintonizzare
compassion,compassione
polished,lucidato
latitude,latitudine
dishes,piatti
parent,genitore
contrived,artificiosa
delicacy,delicatezza
projected,proiettata
akin,simile
f,f
betray,tradire
traced,tracciato
resentment,risentimento
indemnify,indennizzare
pseud,pseud
sacrifices,sacrifici
disguise,travestimento
transcription,trascrizione
document,documento
neighbour,vicino
squire,possidente
punish,punire
bars,barre
glittering,scintillio
tossed,sballottati
block,bloccare
lots,un sacco
worldly,mondano
muscles,muscoli
elbow,gomito
obligation,obbligo
trifling,insignificante
decline,declino
attachment,allegati
ambitious,ambizioso
filename,nome del file
artists,artisti
bloom,fioritura
holiday,vacanza
brute,bruto
repair,riparazione
fist,pugno
recollect,ricordarsi
eagle,aquila
honorable,onorevole
significant,significativo
barren,sterile
functions,funzioni
guided,guidata
dense,denso
fiction,finzione
viz.,cioè.
adds,aggiunge
rows,righe
recommend,raccomandare
suspicious,sospetto
resulting,risultante
seventy,Settanta
shillings,scellini
educational,educativo
duly,debitamente
governed,governati
scripture,Sacre scritture
upwards,verso l'alto
sworn,giurato
Nicholas,Nicholas
horn,Corno
brook,ruscello
fund,fondo
Vienna,Vienna
lodge,casetta
infinitely,infinitamente
clergyman,ecclesiastico
marshal,maresciallo
ruled,governato
fiercely,ferocemente
Portuguese,portoghese
costume,costume
pit,fossa
disorder,disturbo
sheer,puro
exalted,esaltato
fare,tariffa
applause,applausi
Chaucer,Chaucer
remind,ricordare
binary,binario
packed,confezionato
pillow,cuscino
jersey,maglia
abbey,abbazia
nowhere,Da nessuna parte
anyhow,comunque
agitated,agitato
marching,in marcia
catching,attraente
el,EL
grasped,afferrato
arrow,freccia
tend,tendere
carved,lavorato
fitting,adatto
bonds,obbligazioni
instructed,istruzioni
elaborate,elaborare
corpse,cadavere
bewildered,sconcertato
essence,essenza
positions,posizioni
Emily,Emily
edited,modificato
continues,continua
Harold,Harold
elevation,elevazione
realm,regno
debts,debiti
glancing,guardando
shops,negozi
complained,lamentato
loyalty,lealtà
coin,moneta
clad,rivestito
staircase,scala
documents,documenti
interpreted,interpretato
4th,4 °
extremity,estremità
accord,accordo
sally,sortita
lace,pizzo
tremble,tremare
exile,esilio
gospel,vangelo
mechanical,meccanico
successfully,con successo
scholar,studioso
wonders,meraviglie
Arab,arabo
temperament,temperamento
expressing,esprimendo
Fred,Fred
trap,trappola
spots,macchie
awaiting,in attesa
potatoes,patate
likeness,somiglianza
harbour,porto
proofs,prove
jolly,allegro
contributed,ha contribuito
wits,ingegno
generosity,generosità
ruler,righello
Lawrence,Lawrence
cake,torta
lamps,lampade
crazy,pazzo
sincerity,sincerità
entertain,intrattenere
madame,madame
sir,Signore
faculties,facoltà
hesitate,esitare
deepest,più profondo
seventeen,diciassette
lordship,signoria
greeting,saluto
feminine,femminile
monstrous,mostruoso
tongues,lingue
barely,appena
3d,3d
mansion,dimora
facility,"servizio, struttura"
praised,lodato
warranties,garanzie
Sarah,Sarah
happier,più felici
indicating,indicando
rob,rapinare
gigantic,gigantesco
honey,miele
ladder,scala
ending,fine
Wales,Galles
swallowed,ingestione
sunny,soleggiato
knelt,knelt
tyranny,tirannia
decree,decreto
stake,palo
divide,dividere
dreaming,sognare
proclaimed,proclamato
dignified,dignitoso
tread,Filo
mines,miniere
viewing,visualizzazione
defense,difesa
oldest,il più vecchio
incredible,incredibile
bidding,offerta
brick,mattone
arch,arco
everlasting,eterno
elect,eletto
sprung,a molle
harder,Più forte
winding,carica
deductible,detraibile
magistrate,magistrato
respective,rispettivo
liquor,liquore
imitation,imitazione
shy,timido
perished,perito
prime,primo
studying,studiando
eighty,ottanta
Hebrew,ebraico
unfortunately,purtroppo
licensed,autorizzato
fog,nebbia
coloured,colorato
bits,bit
consult,consultare
moves,si muove
r,R
warn,avvertire
Taylor,Taylor
vile,vile
depended,dipendeva
Phil,Phil
legend,leggenda
locations,posizioni
shallow,superficiale
doom,destino
dreaded,temuta
encouragement,incoraggiamento
impatiently,impazientemente
scent,profumo
varieties,varietà
irregular,irregolare
battles,battaglie
compass,bussola
neighbouring,vicino
bliss,beatitudine
harvest,raccolto
promotion,promozione
stove,stufa
faithfully,fedelmente
Anthony,Anthony
excellence,eccellenza
transfer,trasferimento
awaited,atteso
heathen,pagano
poetic,poetico
consulted,consultato
illustrated,illustrato
Gilbert,Gilbert
br,br
fundamental,fondamentale
bundle,impacchettare
rebel,ribelle
cultivation,coltivazione
joys,gioie
rigid,rigido
tragic,tragico
review,revisione
representing,che rappresentano
flowed,scorreva
brows,sopracciglia
whereupon,dopo di che
terribly,terribilmente
melted,fuso
venerable,venerabile
towers,torri
cooking,cucinando
mustn't,non deve
suspicions,sospetti
old-fashioned,vecchio stile
oppressed,oppresso
Australia,Australia
friend's,amici
revolt,rivolta
swell,rigonfiamento
improve,Migliorare
Williams,Williams
describes,descrive
goddess,dea
wreck,relitto
Tennessee,Tennessee
convince,convincere
sentences,frasi
bowl,ciotola
radiant,radiante
Prussia,Prussia
westward,verso ovest
indignant,indignato
refined,raffinato
unseen,nascosto
illustration,illustrazione
pertaining,pertinenza
swamp,palude
Austrian,austriaco
Saxon,sassone
congregation,congregazione
nerve,nervo
undertaking,impresa
disclaimer,disconoscimento
characteristics,caratteristiche
stare,fissare
specimens,campioni
ascertain,accertare
pledge,impegno
earn,guadagnare
warfare,guerra
supposing,ammesso che
subsequently,successivamente
attending,partecipare
angrily,irosamente
select,selezionare
animated,animato
industrial,industriale
hurriedly,in fretta
manhood,virilità
quantities,le quantità
interpretation,interpretazione
dressing,condimento
